module gitlab.com/zendrulat123/books

go 1.15

require (
	github.com/davecgh/go-spew v1.1.1
	github.com/dgrijalva/jwt-go v3.2.0+incompatible // indirect
	github.com/go-sql-driver/mysql v1.5.0
	github.com/labstack/echo v3.3.10+incompatible
	github.com/labstack/gommon v0.3.0 // indirect
	github.com/valyala/fasttemplate v1.2.1 // indirect
	golang.org/x/crypto v0.0.0-20201016220609-9e8e0b390897 // indirect
)
